{
  "variables": {
    "account_file": "{{env `GOOGLE_CLOUD_KEYFILE_JSON`}}",
    "project_id": "xcore-project",
    "source_image_family": "ubuntu-2004-lts",
    "image_name": "xcore-base-{{timestamp}}",
    "zone": "europe-west1-b"
  },
  "builders": [
    {
      "type": "googlecompute",
      "account_file": "{{user `account_file`}}",
      "project_id": "{{user `project_id`}}",
      "source_image_family": "{{user `source_image_family`}}",
      "ssh_username": "packer",
      "disk_size": "50",
      "image_name": "{{user `image_name`}}",
      "zone": "{{user `zone`}}"
    }
  ],
  "provisioners": [
    {
      "type": "shell",
      "script": "xcore_base_provision.sh"
    }
  ]
}
